<svg xmlns="http://www.w3.org/2000/svg" xmlns:xlink="http://www.w3.org/1999/xlink" width="2685.706" height="2474.627" viewBox="0 0 2685.706 2474.627">
  <defs>
    <linearGradient id="linear-gradient" x1="0.128" y1="-0.204" x2="0.711" y2="1.07" gradientUnits="objectBoundingBox">
      <stop offset="0" stop-color="#00ffd4"/>
      <stop offset="0" stop-color="#00fda7"/>
      <stop offset="1" stop-color="#00c9a7"/>
    </linearGradient>
    <filter id="Rectangle_1" x="0" y="0" width="2685.706" height="2474.627" filterUnits="userSpaceOnUse">
      <feOffset dx="-5" input="SourceAlpha"/>
      <feGaussianBlur stdDeviation="4" result="blur"/>
      <feFlood flood-opacity="0.141"/>
      <feComposite operator="in" in2="blur"/>
      <feComposite in="SourceGraphic"/>
    </filter>
  </defs>
  <g transform="matrix(1, 0, 0, 1, 0, 0)" filter="url(#Rectangle_1)">
    <rect id="Rectangle_1-2" data-name="Rectangle 1" width="2142" height="1659" rx="739" transform="matrix(0.89, 0.45, -0.45, 0.89, 770.17, 12)" fill="url(#linear-gradient)"/>
  </g>
</svg>
